<?xml version="1.0" encoding="UTF-8"?>
<svg width="430px" height="423px" viewBox="0 0 430 423" version="1.1" xmlns="http://www.w3.org/2000/svg" xmlns:xlink="http://www.w3.org/1999/xlink">
    <!-- Generator: Sketch 52.6 (67491) - http://www.bohemiancoding.com/sketch -->
    <title>icon</title>
    <desc>Created with Sketch.</desc>
    <g id="icon" stroke="none" stroke-width="1" fill="none" fill-rule="evenodd" font-family="AppleColorEmoji, Apple Color Emoji" font-size="450" font-weight="normal">
        <text id="🧘🏽‍♂️" fill="#000000">
            <tspan x="-10" y="403">🧘🏽‍♂️</tspan>
        </text>
    </g>
</svg>